PP_213,Time,Celsius,Serial
PP_213,2020-06-05 15:51:30,26.0,52321470.0
PP_213,2020-06-05 16:51:30,24.5,52321470.0
PP_213,2020-06-05 17:51:30,25.0,52321470.0
PP_213,2020-06-05 18:51:30,25.0,52321470.0
PP_213,2020-06-05 19:51:30,25.0,52321470.0
PP_213,2020-06-05 20:51:30,25.0,52321470.0
PP_213,2020-06-05 21:51:30,25.0,52321470.0
PP_213,2020-06-05 22:51:30,25.0,52321470.0
PP_213,2020-06-05 23:51:30,25.0,52321470.0
PP_213,2020-06-06 00:51:30,25.0,52321470.0
PP_213,2020-06-06 01:51:30,25.0,52321470.0
PP_213,2020-06-06 02:51:30,25.0,52321470.0
PP_213,2020-06-06 03:51:30,25.0,52321470.0
PP_213,2020-06-06 04:51:30,25.0,52321470.0
PP_213,2020-06-06 05:51:30,25.0,52321470.0
PP_213,2020-06-06 06:51:30,25.0,52321470.0
PP_213,2020-06-06 07:51:30,24.5,52321470.0
PP_213,2020-06-06 08:51:30,24.5,52321470.0
PP_213,2020-06-06 09:51:30,24.5,52321470.0
PP_213,2020-06-06 10:51:30,24.5,52321470.0
PP_213,2020-06-06 11:51:30,24.5,52321470.0
PP_213,2020-06-06 12:51:30,24.5,52321470.0
PP_213,2020-06-06 13:51:30,24.5,52321470.0
PP_213,2020-06-06 14:51:30,24.5,52321470.0
PP_213,2020-06-06 15:51:30,24.5,52321470.0
PP_213,2020-06-06 16:51:30,24.5,52321470.0
PP_213,2020-06-06 17:51:30,24.5,52321470.0
PP_213,2020-06-06 18:51:30,24.5,52321470.0
PP_213,2020-06-06 19:51:30,24.5,52321470.0
PP_213,2020-06-06 20:51:30,24.5,52321470.0
PP_213,2020-06-06 21:51:30,24.5,52321470.0
PP_213,2020-06-06 22:51:30,24.5,52321470.0
PP_213,2020-06-06 23:51:30,24.5,52321470.0
PP_213,2020-06-07 00:51:30,24.5,52321470.0
PP_213,2020-06-07 01:51:30,24.5,52321470.0
PP_213,2020-06-07 02:51:30,24.5,52321470.0
PP_213,2020-06-07 03:51:30,24.5,52321470.0
PP_213,2020-06-07 04:51:30,24.5,52321470.0
PP_213,2020-06-07 05:51:30,24.0,52321470.0
PP_213,2020-06-07 06:51:30,24.0,52321470.0
PP_213,2020-06-07 07:51:30,24.0,52321470.0
PP_213,2020-06-07 08:51:30,24.0,52321470.0
PP_213,2020-06-07 09:51:30,24.0,52321470.0
PP_213,2020-06-07 10:51:30,24.0,52321470.0
PP_213,2020-06-07 11:51:30,24.0,52321470.0
PP_213,2020-06-07 12:51:30,24.0,52321470.0
PP_213,2020-06-07 13:51:30,24.0,52321470.0
PP_213,2020-06-07 14:51:30,24.0,52321470.0
PP_213,2020-06-07 15:51:30,24.0,52321470.0
PP_213,2020-06-07 16:51:30,24.0,52321470.0
PP_213,2020-06-07 17:51:30,24.0,52321470.0
PP_213,2020-06-07 18:51:30,24.0,52321470.0
PP_213,2020-06-07 19:51:30,24.0,52321470.0
PP_213,2020-06-07 20:51:30,23.5,52321470.0
PP_213,2020-06-07 21:51:30,23.5,52321470.0
PP_213,2020-06-07 22:51:30,23.5,52321470.0
PP_213,2020-06-07 23:51:30,23.5,52321470.0
PP_213,2020-06-08 00:51:30,23.5,52321470.0
PP_213,2020-06-08 01:51:30,23.5,52321470.0
PP_213,2020-06-08 02:51:30,23.5,52321470.0
PP_213,2020-06-08 03:51:30,23.5,52321470.0
PP_213,2020-06-08 04:51:30,23.5,52321470.0
PP_213,2020-06-08 05:51:30,23.0,52321470.0
PP_213,2020-06-08 06:51:30,23.0,52321470.0
PP_213,2020-06-08 07:51:30,23.0,52321470.0
PP_213,2020-06-08 08:51:30,23.0,52321470.0
PP_213,2020-06-08 09:51:30,23.0,52321470.0
PP_213,2020-06-08 10:51:30,23.5,52321470.0
PP_213,2020-06-08 11:51:30,24.0,52321470.0
PP_213,2020-06-08 12:51:30,24.5,52321470.0
PP_213,2020-06-08 13:51:30,24.0,52321470.0
PP_213,2020-06-08 14:51:30,24.5,52321470.0
PP_213,2020-06-08 15:51:30,24.5,52321470.0
PP_213,2020-06-08 16:51:30,24.5,52321470.0
PP_213,2020-06-08 17:51:30,24.0,52321470.0
PP_213,2020-06-08 18:51:30,24.0,52321470.0
PP_213,2020-06-08 19:51:30,24.0,52321470.0
PP_213,2020-06-08 20:51:30,23.5,52321470.0
PP_213,2020-06-08 21:51:30,23.5,52321470.0
PP_213,2020-06-08 22:51:30,23.5,52321470.0
PP_213,2020-06-08 23:51:30,23.5,52321470.0
PP_213,2020-06-09 00:51:30,23.5,52321470.0
PP_213,2020-06-09 01:51:30,23.5,52321470.0
PP_213,2020-06-09 02:51:30,23.5,52321470.0
PP_213,2020-06-09 03:51:30,23.5,52321470.0
PP_213,2020-06-09 04:51:30,23.5,52321470.0
PP_213,2020-06-09 05:51:30,23.5,52321470.0
PP_213,2020-06-09 06:51:30,23.0,52321470.0
PP_213,2020-06-09 07:51:30,23.0,52321470.0
PP_213,2020-06-09 08:51:30,23.0,52321470.0
PP_213,2020-06-09 09:51:30,23.0,52321470.0
PP_213,2020-06-09 10:51:30,23.0,52321470.0
PP_213,2020-06-09 11:51:30,23.0,52321470.0
PP_213,2020-06-09 12:51:30,23.0,52321470.0
PP_213,2020-06-09 13:51:30,23.5,52321470.0
PP_213,2020-06-09 14:51:30,23.5,52321470.0
PP_213,2020-06-09 15:51:30,23.5,52321470.0
PP_213,2020-06-09 16:51:30,23.5,52321470.0
PP_213,2020-06-09 17:51:30,23.5,52321470.0
PP_213,2020-06-09 18:51:30,23.5,52321470.0
PP_213,2020-06-09 19:51:30,23.5,52321470.0
PP_213,2020-06-09 20:51:30,23.0,52321470.0
PP_213,2020-06-09 21:51:30,23.0,52321470.0
PP_213,2020-06-09 22:51:30,23.0,52321470.0
PP_213,2020-06-09 23:51:30,23.0,52321470.0
PP_213,2020-06-10 00:51:30,23.0,52321470.0
PP_213,2020-06-10 01:51:30,23.0,52321470.0
PP_213,2020-06-10 02:51:30,22.5,52321470.0
PP_213,2020-06-10 03:51:30,22.5,52321470.0
PP_213,2020-06-10 04:51:30,22.5,52321470.0
PP_213,2020-06-10 05:51:30,22.5,52321470.0
PP_213,2020-06-10 06:51:30,22.5,52321470.0
PP_213,2020-06-10 07:51:30,22.5,52321470.0
PP_213,2020-06-10 08:51:30,22.5,52321470.0
PP_213,2020-06-10 09:51:30,22.5,52321470.0
PP_213,2020-06-10 10:51:30,22.5,52321470.0
PP_213,2020-06-10 11:51:30,23.0,52321470.0
PP_213,2020-06-10 12:51:30,23.0,52321470.0
PP_213,2020-06-10 13:51:30,23.0,52321470.0
PP_213,2020-06-10 14:51:30,23.5,52321470.0
PP_213,2020-06-10 15:51:30,23.5,52321470.0
PP_213,2020-06-10 16:51:30,23.5,52321470.0
PP_213,2020-06-10 17:51:30,23.5,52321470.0
PP_213,2020-06-10 18:51:30,23.5,52321470.0
PP_213,2020-06-10 19:51:30,23.0,52321470.0
PP_213,2020-06-10 20:51:30,23.0,52321470.0
PP_213,2020-06-10 21:51:30,23.0,52321470.0
PP_213,2020-06-10 22:51:30,23.0,52321470.0
PP_213,2020-06-10 23:51:30,23.0,52321470.0
PP_213,2020-06-11 00:51:30,23.0,52321470.0
PP_213,2020-06-11 01:51:30,22.5,52321470.0
PP_213,2020-06-11 02:51:30,22.5,52321470.0
PP_213,2020-06-11 03:51:30,22.5,52321470.0
PP_213,2020-06-11 04:51:30,22.5,52321470.0
PP_213,2020-06-11 05:51:30,22.5,52321470.0
PP_213,2020-06-11 06:51:30,22.5,52321470.0
PP_213,2020-06-11 07:51:30,22.5,52321470.0
PP_213,2020-06-11 08:51:30,22.5,52321470.0
PP_213,2020-06-11 09:51:30,23.0,52321470.0
PP_213,2020-06-11 10:51:30,23.5,52321470.0
PP_213,2020-06-11 11:51:30,23.5,52321470.0
PP_213,2020-06-11 12:51:30,23.5,52321470.0
PP_213,2020-06-11 13:51:30,23.5,52321470.0
PP_213,2020-06-11 14:51:30,23.5,52321470.0
PP_213,2020-06-11 15:51:30,24.0,52321470.0
PP_213,2020-06-11 16:51:30,24.0,52321470.0
PP_213,2020-06-11 17:51:30,23.5,52321470.0
PP_213,2020-06-11 18:51:30,23.5,52321470.0
PP_213,2020-06-11 19:51:30,23.0,52321470.0
PP_213,2020-06-11 20:51:30,23.0,52321470.0
PP_213,2020-06-11 21:51:30,23.0,52321470.0
PP_213,2020-06-11 22:51:30,23.0,52321470.0
PP_213,2020-06-11 23:51:30,23.0,52321470.0
PP_213,2020-06-12 00:51:30,23.0,52321470.0
PP_213,2020-06-12 01:51:30,23.0,52321470.0
PP_213,2020-06-12 02:51:30,22.5,52321470.0
PP_213,2020-06-12 03:51:30,22.5,52321470.0
PP_213,2020-06-12 04:51:30,22.5,52321470.0
PP_213,2020-06-12 05:51:30,22.5,52321470.0
PP_213,2020-06-12 06:51:30,22.5,52321470.0
PP_213,2020-06-12 07:51:30,22.5,52321470.0
PP_213,2020-06-12 08:51:30,22.5,52321470.0
PP_213,2020-06-12 09:51:30,23.0,52321470.0
PP_213,2020-06-12 10:51:30,23.5,52321470.0
PP_213,2020-06-12 11:51:30,24.0,52321470.0
PP_213,2020-06-12 12:51:30,23.5,52321470.0
PP_213,2020-06-12 13:51:30,23.5,52321470.0
PP_213,2020-06-12 14:51:30,24.0,52321470.0
PP_213,2020-06-12 15:51:30,24.0,52321470.0
PP_213,2020-06-12 16:51:30,24.5,52321470.0
PP_213,2020-06-12 17:51:30,24.5,52321470.0
PP_213,2020-06-12 18:51:30,24.0,52321470.0
PP_213,2020-06-12 19:51:30,23.5,52321470.0
PP_213,2020-06-12 20:51:30,23.5,52321470.0
PP_213,2020-06-12 21:51:30,23.5,52321470.0
PP_213,2020-06-12 22:51:30,23.0,52321470.0
PP_213,2020-06-12 23:51:30,23.0,52321470.0
PP_213,2020-06-13 00:51:30,23.0,52321470.0
PP_213,2020-06-13 01:51:30,23.0,52321470.0
PP_213,2020-06-13 02:51:30,23.0,52321470.0
PP_213,2020-06-13 03:51:30,23.0,52321470.0
PP_213,2020-06-13 04:51:30,23.0,52321470.0
PP_213,2020-06-13 05:51:30,23.0,52321470.0
PP_213,2020-06-13 06:51:30,22.5,52321470.0
PP_213,2020-06-13 07:51:30,22.5,52321470.0
PP_213,2020-06-13 08:51:30,22.5,52321470.0
PP_213,2020-06-13 09:51:30,22.5,52321470.0
PP_213,2020-06-13 10:51:30,22.5,52321470.0
PP_213,2020-06-13 11:51:30,22.5,52321470.0
PP_213,2020-06-13 12:51:30,22.5,52321470.0
PP_213,2020-06-13 13:51:30,23.0,52321470.0
PP_213,2020-06-13 14:51:30,23.0,52321470.0
PP_213,2020-06-13 15:51:30,23.0,52321470.0
PP_213,2020-06-13 16:51:30,23.0,52321470.0
PP_213,2020-06-13 17:51:30,23.0,52321470.0
PP_213,2020-06-13 18:51:30,23.0,52321470.0
PP_213,2020-06-13 19:51:30,23.0,52321470.0
PP_213,2020-06-13 20:51:30,23.0,52321470.0
PP_213,2020-06-13 21:51:30,22.5,52321470.0
PP_213,2020-06-13 22:51:30,22.5,52321470.0
PP_213,2020-06-13 23:51:30,22.5,52321470.0
PP_213,2020-06-14 00:51:30,22.5,52321470.0
PP_213,2020-06-14 01:51:30,22.5,52321470.0
PP_213,2020-06-14 02:51:30,22.5,52321470.0
PP_213,2020-06-14 03:51:30,22.5,52321470.0
PP_213,2020-06-14 04:51:30,22.5,52321470.0
PP_213,2020-06-14 05:51:30,22.5,52321470.0
PP_213,2020-06-14 06:51:30,22.5,52321470.0
PP_213,2020-06-14 07:51:30,22.5,52321470.0
PP_213,2020-06-14 08:51:30,22.5,52321470.0
PP_213,2020-06-14 09:51:30,22.5,52321470.0
PP_213,2020-06-14 10:51:30,22.5,52321470.0
PP_213,2020-06-14 11:51:30,22.5,52321470.0
PP_213,2020-06-14 12:51:30,22.5,52321470.0
PP_213,2020-06-14 13:51:30,22.5,52321470.0
PP_213,2020-06-14 14:51:30,22.5,52321470.0
PP_213,2020-06-14 15:51:30,22.5,52321470.0
PP_213,2020-06-14 16:51:30,23.0,52321470.0
PP_213,2020-06-14 17:51:30,23.0,52321470.0
PP_213,2020-06-14 18:51:30,23.0,52321470.0
PP_213,2020-06-14 19:51:30,23.0,52321470.0
PP_213,2020-06-14 20:51:30,23.0,52321470.0
PP_213,2020-06-14 21:51:30,23.0,52321470.0
PP_213,2020-06-14 22:51:30,23.0,52321470.0
PP_213,2020-06-14 23:51:30,23.0,52321470.0
PP_213,2020-06-15 00:51:30,23.0,52321470.0
PP_213,2020-06-15 01:51:30,23.0,52321470.0
PP_213,2020-06-15 02:51:30,23.0,52321470.0
PP_213,2020-06-15 03:51:30,22.5,52321470.0
PP_213,2020-06-15 04:51:30,22.5,52321470.0
PP_213,2020-06-15 05:51:30,22.5,52321470.0
PP_213,2020-06-15 06:51:30,22.5,52321470.0
PP_213,2020-06-15 07:51:30,22.5,52321470.0
PP_213,2020-06-15 08:51:30,22.5,52321470.0
PP_213,2020-06-15 09:51:30,23.0,52321470.0
PP_213,2020-06-15 10:51:30,23.5,52321470.0
PP_213,2020-06-15 11:51:30,23.5,52321470.0
PP_213,2020-06-15 12:51:30,24.0,52321470.0
PP_213,2020-06-15 13:51:30,23.5,52321470.0
PP_213,2020-06-15 14:51:30,24.0,52321470.0
PP_213,2020-06-15 15:51:30,24.5,52321470.0
PP_213,2020-06-15 16:51:30,24.5,52321470.0
PP_213,2020-06-15 17:51:30,25.0,52321470.0
PP_213,2020-06-15 18:51:30,25.0,52321470.0
PP_213,2020-06-15 19:51:30,24.5,52321470.0
PP_213,2020-06-15 20:51:30,24.0,52321470.0
PP_213,2020-06-15 21:51:30,24.0,52321470.0
PP_213,2020-06-15 22:51:30,24.0,52321470.0
PP_213,2020-06-15 23:51:30,23.5,52321470.0
PP_213,2020-06-16 00:51:30,23.5,52321470.0
PP_213,2020-06-16 01:51:30,23.5,52321470.0
PP_213,2020-06-16 02:51:30,23.5,52321470.0
PP_213,2020-06-16 03:51:30,23.5,52321470.0
PP_213,2020-06-16 04:51:30,23.5,52321470.0
PP_213,2020-06-16 05:51:30,23.5,52321470.0
PP_213,2020-06-16 06:51:30,23.5,52321470.0
PP_213,2020-06-16 07:51:30,23.5,52321470.0
PP_213,2020-06-16 08:51:30,23.5,52321470.0
PP_213,2020-06-16 09:51:30,23.5,52321470.0
PP_213,2020-06-16 10:51:30,24.0,52321470.0
PP_213,2020-06-16 11:51:30,24.5,52321470.0
PP_213,2020-06-16 12:51:30,24.5,52321470.0
PP_213,2020-06-16 13:51:30,24.5,52321470.0
PP_213,2020-06-16 14:51:30,25.0,52321470.0
PP_213,2020-06-16 15:51:30,25.5,52321470.0
PP_213,2020-06-16 16:51:30,25.5,52321470.0
PP_213,2020-06-16 17:51:30,26.0,52321470.0
PP_213,2020-06-16 18:51:30,25.5,52321470.0
PP_213,2020-06-16 19:51:30,25.0,52321470.0
PP_213,2020-06-16 20:51:30,25.0,52321470.0
PP_213,2020-06-16 21:51:30,24.5,52321470.0
PP_213,2020-06-16 22:51:30,24.5,52321470.0
PP_213,2020-06-16 23:51:30,24.5,52321470.0
PP_213,2020-06-17 00:51:30,24.5,52321470.0
PP_213,2020-06-17 01:51:30,24.5,52321470.0
PP_213,2020-06-17 02:51:30,24.5,52321470.0
PP_213,2020-06-17 03:51:30,24.0,52321470.0
PP_213,2020-06-17 04:51:30,24.0,52321470.0
PP_213,2020-06-17 05:51:30,24.0,52321470.0
PP_213,2020-06-17 06:51:30,24.0,52321470.0
PP_213,2020-06-17 07:51:30,24.0,52321470.0
PP_213,2020-06-17 08:51:30,24.0,52321470.0
PP_213,2020-06-17 09:51:30,24.5,52321470.0
PP_213,2020-06-17 10:51:30,25.0,52321470.0
PP_213,2020-06-17 11:51:30,25.0,52321470.0
PP_213,2020-06-17 12:51:30,25.5,52321470.0
PP_213,2020-06-17 13:51:30,25.5,52321470.0
PP_213,2020-06-17 14:51:30,25.0,52321470.0
PP_213,2020-06-17 15:51:30,25.5,52321470.0
PP_213,2020-06-17 16:51:30,25.5,52321470.0
PP_213,2020-06-17 17:51:30,26.0,52321470.0
PP_213,2020-06-17 18:51:30,26.0,52321470.0
PP_213,2020-06-17 19:51:30,25.5,52321470.0
PP_213,2020-06-17 20:51:30,25.5,52321470.0
PP_213,2020-06-17 21:51:30,25.0,52321470.0
PP_213,2020-06-17 22:51:30,25.0,52321470.0
PP_213,2020-06-17 23:51:30,25.0,52321470.0
PP_213,2020-06-18 00:51:30,25.0,52321470.0
PP_213,2020-06-18 01:51:30,25.0,52321470.0
PP_213,2020-06-18 02:51:30,24.5,52321470.0
PP_213,2020-06-18 03:51:30,24.5,52321470.0
PP_213,2020-06-18 04:51:30,24.5,52321470.0
PP_213,2020-06-18 05:51:30,24.5,52321470.0
PP_213,2020-06-18 06:51:30,24.5,52321470.0
PP_213,2020-06-18 07:51:30,24.5,52321470.0
PP_213,2020-06-18 08:51:30,24.5,52321470.0
PP_213,2020-06-18 09:51:30,24.5,52321470.0
PP_213,2020-06-18 10:51:30,24.5,52321470.0
PP_213,2020-06-18 11:51:30,24.5,52321470.0
PP_213,2020-06-18 12:51:30,25.0,52321470.0
PP_213,2020-06-18 13:51:30,25.5,52321470.0
PP_213,2020-06-18 14:51:30,25.5,52321470.0
PP_213,2020-06-18 15:51:30,26.0,52321470.0
PP_213,2020-06-18 16:51:30,26.0,52321470.0
PP_213,2020-06-18 17:51:30,26.0,52321470.0
PP_213,2020-06-18 18:51:30,26.0,52321470.0
PP_213,2020-06-18 19:51:30,25.5,52321470.0
PP_213,2020-06-18 20:51:30,25.5,52321470.0
PP_213,2020-06-18 21:51:30,25.0,52321470.0
PP_213,2020-06-18 22:51:30,25.0,52321470.0
PP_213,2020-06-18 23:51:30,25.0,52321470.0
PP_213,2020-06-19 00:51:30,25.0,52321470.0
PP_213,2020-06-19 01:51:30,25.0,52321470.0
PP_213,2020-06-19 02:51:30,25.0,52321470.0
PP_213,2020-06-19 03:51:30,25.0,52321470.0
PP_213,2020-06-19 04:51:30,24.5,52321470.0
PP_213,2020-06-19 05:51:30,24.5,52321470.0
PP_213,2020-06-19 06:51:30,24.5,52321470.0
PP_213,2020-06-19 07:51:30,24.5,52321470.0
PP_213,2020-06-19 08:51:30,24.5,52321470.0
PP_213,2020-06-19 09:51:30,25.0,52321470.0
PP_213,2020-06-19 10:51:30,25.5,52321470.0
PP_213,2020-06-19 11:51:30,25.5,52321470.0
PP_213,2020-06-19 12:51:30,25.5,52321470.0
PP_213,2020-06-19 13:51:30,25.0,52321470.0
PP_213,2020-06-19 14:51:30,25.0,52321470.0
PP_213,2020-06-19 15:51:30,25.5,52321470.0
PP_213,2020-06-19 16:51:30,26.0,52321470.0
PP_213,2020-06-19 17:51:30,26.0,52321470.0
PP_213,2020-06-19 18:51:30,25.5,52321470.0
PP_213,2020-06-19 19:51:30,25.5,52321470.0
PP_213,2020-06-19 20:51:30,25.5,52321470.0
PP_213,2020-06-19 21:51:30,25.0,52321470.0
PP_213,2020-06-19 22:51:30,25.0,52321470.0
PP_213,2020-06-19 23:51:30,25.0,52321470.0
PP_213,2020-06-20 00:51:30,25.0,52321470.0
PP_213,2020-06-20 01:51:30,25.0,52321470.0
PP_213,2020-06-20 02:51:30,25.0,52321470.0
PP_213,2020-06-20 03:51:30,25.0,52321470.0
PP_213,2020-06-20 04:51:30,25.0,52321470.0
PP_213,2020-06-20 05:51:30,24.5,52321470.0
PP_213,2020-06-20 06:51:30,24.5,52321470.0
PP_213,2020-06-20 07:51:30,24.5,52321470.0
PP_213,2020-06-20 08:51:30,24.5,52321470.0
PP_213,2020-06-20 09:51:30,24.5,52321470.0
PP_213,2020-06-20 10:51:30,24.5,52321470.0
PP_213,2020-06-20 11:51:30,25.0,52321470.0
PP_213,2020-06-20 12:51:30,25.0,52321470.0
PP_213,2020-06-20 13:51:30,25.0,52321470.0
PP_213,2020-06-20 14:51:30,25.0,52321470.0
PP_213,2020-06-20 15:51:30,25.0,52321470.0
PP_213,2020-06-20 16:51:30,25.0,52321470.0
PP_213,2020-06-20 17:51:30,25.0,52321470.0
PP_213,2020-06-20 18:51:30,25.0,52321470.0
PP_213,2020-06-20 19:51:30,25.0,52321470.0
PP_213,2020-06-20 20:51:30,25.0,52321470.0
PP_213,2020-06-20 21:51:30,25.0,52321470.0
PP_213,2020-06-20 22:51:30,25.0,52321470.0
PP_213,2020-06-20 23:51:30,25.0,52321470.0
PP_213,2020-06-21 00:51:30,25.0,52321470.0
PP_213,2020-06-21 01:51:30,25.0,52321470.0
PP_213,2020-06-21 02:51:30,25.0,52321470.0
PP_213,2020-06-21 03:51:30,25.0,52321470.0
PP_213,2020-06-21 04:51:30,25.0,52321470.0
PP_213,2020-06-21 05:51:30,25.0,52321470.0
PP_213,2020-06-21 06:51:30,25.0,52321470.0
PP_213,2020-06-21 07:51:30,25.0,52321470.0
PP_213,2020-06-21 08:51:30,25.0,52321470.0
PP_213,2020-06-21 09:51:30,25.0,52321470.0
PP_213,2020-06-21 10:51:30,25.0,52321470.0
PP_213,2020-06-21 11:51:30,25.0,52321470.0
PP_213,2020-06-21 12:51:30,25.0,52321470.0
PP_213,2020-06-21 13:51:30,25.0,52321470.0
PP_213,2020-06-21 14:51:30,25.0,52321470.0
PP_213,2020-06-21 15:51:30,25.5,52321470.0
PP_213,2020-06-21 16:51:30,25.5,52321470.0
PP_213,2020-06-21 17:51:30,25.5,52321470.0
PP_213,2020-06-21 18:51:30,25.5,52321470.0
PP_213,2020-06-21 19:51:30,25.5,52321470.0
PP_213,2020-06-21 20:51:30,25.5,52321470.0
PP_213,2020-06-21 21:51:30,25.5,52321470.0
PP_213,2020-06-21 22:51:30,25.5,52321470.0
PP_213,2020-06-21 23:51:30,25.5,52321470.0
PP_213,2020-06-22 00:51:30,25.5,52321470.0
PP_213,2020-06-22 01:51:30,25.5,52321470.0
PP_213,2020-06-22 02:51:30,25.5,52321470.0
PP_213,2020-06-22 03:51:30,25.5,52321470.0
PP_213,2020-06-22 04:51:30,25.5,52321470.0
PP_213,2020-06-22 05:51:30,25.5,52321470.0
PP_213,2020-06-22 06:51:30,25.5,52321470.0
PP_213,2020-06-22 07:51:30,25.5,52321470.0
PP_213,2020-06-22 08:51:30,25.5,52321470.0
PP_213,2020-06-22 09:51:30,26.0,52321470.0
PP_213,2020-06-22 10:51:30,26.5,52321470.0
PP_213,2020-06-22 11:51:30,26.5,52321470.0
PP_213,2020-06-22 12:51:30,27.0,52321470.0
PP_213,2020-06-22 13:51:30,26.5,52321470.0
PP_213,2020-06-22 14:51:30,26.5,52321470.0
PP_213,2020-06-22 15:51:30,27.0,52321470.0
PP_213,2020-06-22 16:51:30,27.5,52321470.0
PP_213,2020-06-22 17:51:30,28.0,52321470.0
PP_213,2020-06-22 18:51:30,28.0,52321470.0
PP_213,2020-06-22 19:51:30,27.5,52321470.0
PP_213,2020-06-22 20:51:30,27.0,52321470.0
PP_213,2020-06-22 21:51:30,27.0,52321470.0
PP_213,2020-06-22 22:51:30,27.0,52321470.0
PP_213,2020-06-22 23:51:30,26.5,52321470.0
PP_213,2020-06-23 00:51:30,26.5,52321470.0
PP_213,2020-06-23 01:51:30,26.5,52321470.0
PP_213,2020-06-23 02:51:30,26.5,52321470.0
PP_213,2020-06-23 03:51:30,26.5,52321470.0
PP_213,2020-06-23 04:51:30,26.5,52321470.0
PP_213,2020-06-23 05:51:30,26.0,52321470.0
PP_213,2020-06-23 06:51:30,26.0,52321470.0
PP_213,2020-06-23 07:51:30,26.0,52321470.0
PP_213,2020-06-23 08:51:30,26.0,52321470.0
PP_213,2020-06-23 09:51:30,26.5,52321470.0
PP_213,2020-06-23 10:51:30,27.0,52321470.0
PP_213,2020-06-23 11:51:30,27.5,52321470.0
PP_213,2020-06-23 12:51:30,27.5,52321470.0
PP_213,2020-06-23 13:51:30,27.5,52321470.0
PP_213,2020-06-23 14:51:30,28.0,52321470.0
PP_213,2020-06-23 15:51:30,28.5,52321470.0
PP_213,2020-06-23 16:51:30,28.5,52321470.0
PP_213,2020-06-23 17:51:30,28.0,52321470.0
PP_213,2020-06-23 18:51:30,28.0,52321470.0
PP_213,2020-06-23 19:51:30,28.0,52321470.0
PP_213,2020-06-23 20:51:30,27.5,52321470.0
PP_213,2020-06-23 21:51:30,27.5,52321470.0
PP_213,2020-06-23 22:51:30,27.5,52321470.0
PP_213,2020-06-23 23:51:30,27.5,52321470.0
PP_213,2020-06-24 00:51:30,27.5,52321470.0
PP_213,2020-06-24 01:51:30,27.5,52321470.0
PP_213,2020-06-24 02:51:30,27.5,52321470.0
PP_213,2020-06-24 03:51:30,27.5,52321470.0
PP_213,2020-06-24 04:51:30,27.5,52321470.0
PP_213,2020-06-24 05:51:30,27.5,52321470.0
PP_213,2020-06-24 06:51:30,27.0,52321470.0
PP_213,2020-06-24 07:51:30,27.5,52321470.0
PP_213,2020-06-24 08:51:30,27.0,52321470.0
PP_213,2020-06-24 09:51:30,28.0,52321470.0
PP_213,2020-06-24 10:51:30,28.5,52321470.0
PP_213,2020-06-24 11:51:30,29.0,52321470.0
PP_213,2020-06-24 12:51:30,29.5,52321470.0
PP_213,2020-06-24 13:51:30,29.0,52321470.0
PP_213,2020-06-24 14:51:30,29.5,52321470.0
PP_213,2020-06-24 15:51:30,30.0,52321470.0
PP_213,2020-06-24 16:51:30,30.0,52321470.0
PP_213,2020-06-24 17:51:30,30.0,52321470.0
PP_213,2020-06-24 18:51:30,30.0,52321470.0
PP_213,2020-06-24 19:51:30,29.5,52321470.0
PP_213,2020-06-24 20:51:30,29.0,52321470.0
PP_213,2020-06-24 21:51:30,29.0,52321470.0
PP_213,2020-06-24 22:51:30,29.0,52321470.0
PP_213,2020-06-24 23:51:30,29.0,52321470.0
PP_213,2020-06-25 00:51:30,29.0,52321470.0
PP_213,2020-06-25 01:51:30,29.0,52321470.0
PP_213,2020-06-25 02:51:30,28.5,52321470.0
PP_213,2020-06-25 03:51:30,28.5,52321470.0
PP_213,2020-06-25 04:51:30,28.5,52321470.0
PP_213,2020-06-25 05:51:30,28.5,52321470.0
PP_213,2020-06-25 06:51:30,28.5,52321470.0
PP_213,2020-06-25 07:51:30,28.5,52321470.0
PP_213,2020-06-25 08:51:30,28.5,52321470.0
PP_213,2020-06-25 09:51:30,28.5,52321470.0
PP_213,2020-06-25 10:51:30,29.0,52321470.0
PP_213,2020-06-25 11:51:30,29.0,52321470.0
PP_213,2020-06-25 12:51:30,29.5,52321470.0
PP_213,2020-06-25 13:51:30,29.5,52321470.0
PP_213,2020-06-25 14:51:30,30.0,52321470.0
PP_213,2020-06-25 15:51:30,30.0,52321470.0
PP_213,2020-06-25 16:51:30,30.0,52321470.0
PP_213,2020-06-25 17:51:30,30.5,52321470.0
PP_213,2020-06-25 18:51:30,30.0,52321470.0
PP_213,2020-06-25 19:51:30,30.0,52321470.0
PP_213,2020-06-25 20:51:30,29.5,52321470.0
PP_213,2020-06-25 21:51:30,29.5,52321470.0
PP_213,2020-06-25 22:51:30,29.5,52321470.0
PP_213,2020-06-25 23:51:30,29.5,52321470.0
PP_213,2020-06-26 00:51:30,29.5,52321470.0
PP_213,2020-06-26 01:51:30,29.5,52321470.0
PP_213,2020-06-26 02:51:30,29.5,52321470.0
PP_213,2020-06-26 03:51:30,29.5,52321470.0
PP_213,2020-06-26 04:51:30,29.0,52321470.0
PP_213,2020-06-26 05:51:30,29.0,52321470.0
PP_213,2020-06-26 06:51:30,29.0,52321470.0
PP_213,2020-06-26 07:51:30,29.0,52321470.0
PP_213,2020-06-26 08:51:30,29.0,52321470.0
PP_213,2020-06-26 09:51:30,29.0,52321470.0
PP_213,2020-06-26 10:51:30,29.0,52321470.0
PP_213,2020-06-26 11:51:30,29.0,52321470.0
PP_213,2020-06-26 12:51:30,29.0,52321470.0
PP_213,2020-06-26 13:51:30,28.5,52321470.0
PP_213,2020-06-26 14:51:30,28.5,52321470.0
PP_213,2020-06-26 15:51:30,29.0,52321470.0
PP_213,2020-06-26 16:51:30,29.5,52321470.0
PP_213,2020-06-26 17:51:30,29.5,52321470.0
PP_213,2020-06-26 18:51:30,29.5,52321470.0
PP_213,2020-06-26 19:51:30,29.5,52321470.0
PP_213,2020-06-26 20:51:30,29.0,52321470.0
PP_213,2020-06-26 21:51:30,29.0,52321470.0
PP_213,2020-06-26 22:51:30,29.0,52321470.0
PP_213,2020-06-26 23:51:30,29.0,52321470.0
PP_213,2020-06-27 00:51:30,29.0,52321470.0
PP_213,2020-06-27 01:51:30,29.0,52321470.0
PP_213,2020-06-27 02:51:30,29.0,52321470.0
PP_213,2020-06-27 03:51:30,29.0,52321470.0
PP_213,2020-06-27 04:51:30,29.0,52321470.0
PP_213,2020-06-27 05:51:30,29.0,52321470.0
PP_213,2020-06-27 06:51:30,29.0,52321470.0
PP_213,2020-06-27 07:51:30,29.0,52321470.0
PP_213,2020-06-27 08:51:30,28.5,52321470.0
PP_213,2020-06-27 09:51:30,28.5,52321470.0
PP_213,2020-06-27 10:51:30,28.5,52321470.0
PP_213,2020-06-27 11:51:30,28.5,52321470.0
PP_213,2020-06-27 12:51:30,29.0,52321470.0
PP_213,2020-06-27 13:51:30,29.0,52321470.0
PP_213,2020-06-27 14:51:30,29.0,52321470.0
PP_213,2020-06-27 15:51:30,29.0,52321470.0
PP_213,2020-06-27 16:51:30,29.0,52321470.0
PP_213,2020-06-27 17:51:30,29.0,52321470.0
PP_213,2020-06-27 18:51:30,29.0,52321470.0
PP_213,2020-06-27 19:51:30,29.0,52321470.0
PP_213,2020-06-27 20:51:30,29.0,52321470.0
PP_213,2020-06-27 21:51:30,29.0,52321470.0
PP_213,2020-06-27 22:51:30,29.0,52321470.0
PP_213,2020-06-27 23:51:30,29.0,52321470.0
PP_213,2020-06-28 00:51:30,29.0,52321470.0
PP_213,2020-06-28 01:51:30,29.0,52321470.0
PP_213,2020-06-28 02:51:30,29.0,52321470.0
PP_213,2020-06-28 03:51:30,29.0,52321470.0
PP_213,2020-06-28 04:51:30,29.0,52321470.0
PP_213,2020-06-28 05:51:30,29.0,52321470.0
PP_213,2020-06-28 06:51:30,29.0,52321470.0
PP_213,2020-06-28 07:51:30,29.0,52321470.0
PP_213,2020-06-28 08:51:30,29.0,52321470.0
PP_213,2020-06-28 09:51:30,29.0,52321470.0
PP_213,2020-06-28 10:51:30,29.0,52321470.0
PP_213,2020-06-28 11:51:30,29.0,52321470.0
PP_213,2020-06-28 12:51:30,29.0,52321470.0
PP_213,2020-06-28 13:51:30,29.5,52321470.0
PP_213,2020-06-28 14:51:30,29.5,52321470.0
PP_213,2020-06-28 15:51:30,29.5,52321470.0
PP_213,2020-06-28 16:51:30,29.5,52321470.0
PP_213,2020-06-28 17:51:30,29.5,52321470.0
PP_213,2020-06-28 18:51:30,29.5,52321470.0
PP_213,2020-06-28 19:51:30,29.5,52321470.0
PP_213,2020-06-28 20:51:30,29.5,52321470.0
PP_213,2020-06-28 21:51:30,29.5,52321470.0
PP_213,2020-06-28 22:51:30,29.5,52321470.0
PP_213,2020-06-28 23:51:30,29.5,52321470.0
PP_213,2020-06-29 00:51:30,29.5,52321470.0
PP_213,2020-06-29 01:51:30,29.5,52321470.0
PP_213,2020-06-29 02:51:30,29.5,52321470.0
PP_213,2020-06-29 03:51:30,29.5,52321470.0
PP_213,2020-06-29 04:51:30,29.5,52321470.0
PP_213,2020-06-29 05:51:30,29.5,52321470.0
PP_213,2020-06-29 06:51:30,29.0,52321470.0
PP_213,2020-06-29 07:51:30,29.0,52321470.0
PP_213,2020-06-29 08:51:30,29.0,52321470.0
PP_213,2020-06-29 09:51:30,29.0,52321470.0
PP_213,2020-06-29 10:51:30,29.5,52321470.0
PP_213,2020-06-29 11:51:30,29.5,52321470.0
PP_213,2020-06-29 12:51:30,30.0,52321470.0
PP_213,2020-06-29 13:51:30,30.0,52321470.0
PP_213,2020-06-29 14:51:30,30.0,52321470.0
PP_213,2020-06-29 15:51:30,30.0,52321470.0
PP_213,2020-06-29 16:51:30,30.0,52321470.0
PP_213,2020-06-29 17:51:30,30.5,52321470.0
PP_213,2020-06-29 18:51:30,30.0,52321470.0
PP_213,2020-06-29 19:51:30,30.0,52321470.0
PP_213,2020-06-29 20:51:30,29.5,52321470.0
PP_213,2020-06-29 21:51:30,29.5,52321470.0
PP_213,2020-06-29 22:51:30,29.5,52321470.0
PP_213,2020-06-29 23:51:30,29.5,52321470.0
PP_213,2020-06-30 00:51:30,29.5,52321470.0
PP_213,2020-06-30 01:51:30,29.0,52321470.0
PP_213,2020-06-30 02:51:30,29.0,52321470.0
PP_213,2020-06-30 03:51:30,29.0,52321470.0
PP_213,2020-06-30 04:51:30,29.0,52321470.0
PP_213,2020-06-30 05:51:30,29.0,52321470.0
PP_213,2020-06-30 06:51:30,29.0,52321470.0
PP_213,2020-06-30 07:51:30,29.0,52321470.0
PP_213,2020-06-30 08:51:30,28.5,52321470.0
PP_213,2020-06-30 09:51:30,28.5,52321470.0
PP_213,2020-06-30 10:51:30,28.5,52321470.0
PP_213,2020-06-30 11:51:30,28.5,52321470.0
PP_213,2020-06-30 12:51:30,29.0,52321470.0
PP_213,2020-06-30 13:51:30,29.0,52321470.0
PP_213,2020-06-30 14:51:30,29.0,52321470.0
PP_213,2020-06-30 15:51:30,29.0,52321470.0
PP_213,2020-06-30 16:51:30,29.5,52321470.0
PP_213,2020-06-30 17:51:30,29.5,52321470.0
PP_213,2020-06-30 18:51:30,29.5,52321470.0
PP_213,2020-06-30 19:51:30,29.5,52321470.0
PP_213,2020-06-30 20:51:30,29.5,52321470.0
PP_213,2020-06-30 21:51:30,29.5,52321470.0
PP_213,2020-06-30 22:51:30,29.5,52321470.0
PP_213,2020-06-30 23:51:30,29.5,52321470.0
PP_213,2020-07-01 00:51:30,29.0,52321470.0
PP_213,2020-07-01 01:51:30,29.0,52321470.0
PP_213,2020-07-01 02:51:30,29.0,52321470.0
PP_213,2020-07-01 03:51:30,29.0,52321470.0
PP_213,2020-07-01 04:51:30,29.0,52321470.0
PP_213,2020-07-01 05:51:30,29.0,52321470.0
PP_213,2020-07-01 06:51:30,29.0,52321470.0
PP_213,2020-07-01 07:51:30,29.0,52321470.0
PP_213,2020-07-01 08:51:30,29.0,52321470.0
PP_213,2020-07-01 09:51:30,29.0,52321470.0
PP_213,2020-07-01 10:51:30,29.5,52321470.0
PP_213,2020-07-01 11:51:30,29.5,52321470.0
PP_213,2020-07-01 12:51:30,30.0,52321470.0
PP_213,2020-07-01 13:51:30,30.0,52321470.0
PP_213,2020-07-01 14:51:30,30.5,52321470.0
PP_213,2020-07-01 15:51:30,30.5,52321470.0
PP_213,2020-07-01 16:51:30,30.5,52321470.0
PP_213,2020-07-01 17:51:30,30.5,52321470.0
PP_213,2020-07-01 18:51:30,30.0,52321470.0
PP_213,2020-07-01 19:51:30,30.5,52321470.0
PP_213,2020-07-01 20:51:30,30.0,52321470.0
PP_213,2020-07-01 21:51:30,30.0,52321470.0
PP_213,2020-07-01 22:51:30,30.0,52321470.0
PP_213,2020-07-01 23:51:30,30.0,52321470.0
PP_213,2020-07-02 00:51:30,30.0,52321470.0
PP_213,2020-07-02 01:51:30,30.0,52321470.0
PP_213,2020-07-02 02:51:30,30.0,52321470.0
PP_213,2020-07-02 03:51:30,30.0,52321470.0
PP_213,2020-07-02 04:51:30,30.0,52321470.0
PP_213,2020-07-02 05:51:30,30.0,52321470.0
PP_213,2020-07-02 06:51:30,30.0,52321470.0
PP_213,2020-07-02 07:51:30,29.5,52321470.0
PP_213,2020-07-02 08:51:30,28.5,52321470.0
PP_213,2020-07-02 09:51:30,28.5,52321470.0
PP_213,2020-07-02 10:51:30,28.5,52321470.0
PP_213,2020-07-02 11:51:30,28.0,52321470.0
PP_213,2020-07-02 12:51:30,28.5,52321470.0
PP_213,2020-07-02 13:51:30,29.0,52321470.0
PP_213,2020-07-02 14:51:30,28.5,52321470.0
PP_213,2020-07-02 15:51:30,28.5,52321470.0
PP_213,2020-07-02 16:51:30,29.0,52321470.0
PP_213,2020-07-02 17:51:30,28.5,52321470.0
PP_213,2020-07-02 18:51:30,29.0,52321470.0
PP_213,2020-07-02 19:51:30,29.0,52321470.0
PP_213,2020-07-02 20:51:30,29.0,52321470.0
PP_213,2020-07-02 21:51:30,29.0,52321470.0
PP_213,2020-07-02 22:51:30,29.0,52321470.0
PP_213,2020-07-02 23:51:30,29.0,52321470.0
PP_213,2020-07-03 00:51:30,28.5,52321470.0
PP_213,2020-07-03 01:51:30,28.5,52321470.0
PP_213,2020-07-03 02:51:30,28.5,52321470.0
PP_213,2020-07-03 03:51:30,28.5,52321470.0
PP_213,2020-07-03 04:51:30,28.5,52321470.0
PP_213,2020-07-03 05:51:30,28.5,52321470.0
PP_213,2020-07-03 06:51:30,28.5,52321470.0
PP_213,2020-07-03 07:51:30,28.5,52321470.0
PP_213,2020-07-03 08:51:30,27.5,52321470.0
PP_213,2020-07-03 09:51:30,27.5,52321470.0
PP_213,2020-07-03 10:51:30,27.5,52321470.0
PP_213,2020-07-03 11:51:30,27.5,52321470.0
